0.000000000000000000e+00 7.305825888127003009e-02
9.990000299700010217e-03 7.344118604847914289e-02
1.998000059940002043e-02 7.505190680445930629e-02
2.997000089910003065e-02 7.780404416340827578e-02
3.996000119880004087e-02 8.179324771890336687e-02
4.995000149850005455e-02 8.714167761771894616e-02
5.994000179820006130e-02 9.411774122569513401e-02
6.993000209790006805e-02 1.030716792084018091e-01
7.992000239760008173e-02 1.147888658613950147e-01
8.991000269730009542e-02 1.297947945706164063e-01
9.990000299700010911e-02 1.497246246958563454e-01
1.098900032967001089e-01 1.773617655816196736e-01
1.198800035964001226e-01 2.170705616113898784e-01
1.298700038961001224e-01 2.787531903532962652e-01
1.398600041958001361e-01 3.872870925231973183e-01
1.498500044955001498e-01 6.262075432925167107e-01
1.598400047952001635e-01 1.580567976022994925e+00
1.698300050949001772e-01 3.184123473543681193e+00
1.798200053946001908e-01 8.005818000810097645e-01
1.898100056943002045e-01 4.615244442360162402e-01
1.998000059940002182e-01 3.263165523670955581e-01
2.097900062937002041e-01 2.536578366986130262e-01
2.197800065934002178e-01 2.081841096470063435e-01
2.297700068931002315e-01 1.772189976139680323e-01
2.397600071928002452e-01 1.543780639328964921e-01
2.497500074925002589e-01 1.370934156653422775e-01
2.597400077922002448e-01 1.236216213823044530e-01
2.697300080919002863e-01 1.126334689725828481e-01
2.797200083916002722e-01 1.035059605444436509e-01
2.897100086913003136e-01 9.599293424888133419e-02
2.997000089910002996e-01 8.942976502638058656e-02
3.096900092907003410e-01 8.390651351933516022e-02
3.196800095904003269e-01 7.903069192605852167e-02
3.296700098901003129e-01 7.466283424657153833e-02
3.396600101898003543e-01 7.094213549173809807e-02
3.496500104895003402e-01 6.749347669182309550e-02
3.596400107892003817e-01 6.449442684972930828e-02
3.696300110889003676e-01 6.173326452962398653e-02
3.796200113886004091e-01 5.915116983820495333e-02
3.896100116883003950e-01 5.688624745012548639e-02
3.996000119880004364e-01 5.474747711089279767e-02
4.095900122877004224e-01 5.285693886464735980e-02
4.195800125874004083e-01 5.102835863641567299e-02
4.295700128871004497e-01 4.943488261868018291e-02
4.395600131868004357e-01 4.768512948646141947e-02
4.495500134865004771e-01 4.636065751369226884e-02
4.595400137862004630e-01 4.512232955865779632e-02
4.695300140859005045e-01 4.380978779651711202e-02
4.795200143856004904e-01 4.265339224681739816e-02
4.895100146853004763e-01 4.148004329990957750e-02
4.995000149850005178e-01 3.384000478144592178e-02
5.094900152847005037e-01 3.943164921320176791e-02
5.194800155844004896e-01 3.838669113786271486e-02
5.294700158841005866e-01 3.757356316488993930e-02
5.394600161838005725e-01 3.662193020760440981e-02
5.494500164835005585e-01 3.585082844697709548e-02
5.594400167832005444e-01 3.525217363467537945e-02
5.694300170829005303e-01 3.435907650177379147e-02
5.794200173826006273e-01 3.365050893453708919e-02
5.894100176823006132e-01 3.302357491222930597e-02
5.994000179820005991e-01 3.240873114057429838e-02
6.093900182817005851e-01 3.183251588271168026e-02
6.193800185814006820e-01 3.130729166780426426e-02
6.293700188811006679e-01 3.059673227113309316e-02
6.393600191808006539e-01 3.004428753606547264e-02
6.493500194805006398e-01 2.961127555781385701e-02
6.593400197802006257e-01 2.907959178353006213e-02
6.693300200799007227e-01 2.861825452249049453e-02
6.793200203796007086e-01 2.823020633394298165e-02
6.893100206793006945e-01 2.764401815833687423e-02
6.993000209790006805e-01 2.721465165246739551e-02
7.092900212787007774e-01 2.687093665616902688e-02
7.192800215784007634e-01 2.644494428599661676e-02
7.292700218781007493e-01 2.600956957855010340e-02
7.392600221778007352e-01 2.558666906010966663e-02
7.492500224775007212e-01 2.529314411687198783e-02
7.592400227772008181e-01 2.488215996839806404e-02
7.692300230769008040e-01 2.467565500448069132e-02
7.792200233766007900e-01 2.430122533178264224e-02
7.892100236763007759e-01 2.394999582879382347e-02
7.992000239760008728e-01 2.367086973726537438e-02
8.091900242757008588e-01 2.324634773500835680e-02
8.191800245754008447e-01 2.297835380065007399e-02
8.291700248751008306e-01 2.247433498759906362e-02
8.391600251748008166e-01 2.273155300503224008e-02
8.491500254745009135e-01 2.237890122837077680e-02
8.591400257742008995e-01 2.216072171236123031e-02
8.691300260739008854e-01 2.185635982344413808e-02
8.791200263736008713e-01 2.155295461815589023e-02
8.891100266733008572e-01 2.137922304968651807e-02
8.991000269730009542e-01 2.116250640878084358e-02
9.090900272727009401e-01 2.091384818005488644e-02
9.190800275724009261e-01 2.061527802508747106e-02
9.290700278721009120e-01 2.059314387302524016e-02
9.390600281718010089e-01 2.017259056596045624e-02
9.490500284715009949e-01 1.999727574720322476e-02
9.590400287712009808e-01 1.986227807885763280e-02
9.690300290709009667e-01 1.965229969018053580e-02
9.790200293706009527e-01 1.938007641072526932e-02
9.890100296703010496e-01 1.928135297217070318e-02
9.990000299700010356e-01 1.904957066402363994e-02
1.008990030269701021e+00 1.885532989176064503e-02
1.018980030569401007e+00 1.871419211794494303e-02
1.028970030869100993e+00 1.856280856380646341e-02
1.038960031168800979e+00 1.836127392418455614e-02
1.048950031468500965e+00 1.817199278636733722e-02
1.058940031768201173e+00 1.798409756807464038e-02
1.068930032067901159e+00 1.785631693562010278e-02
1.078920032367601145e+00 1.776921411429958214e-02
1.088910032667301131e+00 1.758951312582063276e-02
1.098900032967001117e+00 1.749694513233978829e-02
1.108890033266701103e+00 1.725161993600898142e-02
1.118880033566401089e+00 1.721521904888708224e-02
1.128870033866101075e+00 1.705210456610418285e-02
1.138860034165801061e+00 1.694988173887673755e-02
1.148850034465501269e+00 1.690578273557154579e-02
1.158840034765201255e+00 1.695609690509414236e-02
1.168830035064901240e+00 1.624375448896407323e-02
1.178820035364601226e+00 1.642980386240220497e-02
1.188810035664301212e+00 1.627110737206349106e-02
1.198800035964001198e+00 1.616358569966603112e-02
1.208790036263701184e+00 1.605711259064941665e-02
1.218780036563401170e+00 1.591693871193467294e-02
1.228770036863101156e+00 1.577168705657229497e-02
1.238760037162801364e+00 1.574259089346296756e-02
1.248750037462501350e+00 1.564002315661370754e-02
1.258740037762201336e+00 1.545686597605396180e-02
1.268730038061901322e+00 1.535514984498125186e-02
1.278720038361601308e+00 1.538867966374108352e-02
1.288710038661301294e+00 1.525520450833085968e-02
1.298700038961001280e+00 1.507413821014653987e-02
1.308690039260701266e+00 1.506791097875491772e-02
1.318680039560401251e+00 1.499173753539644049e-02
1.328670039860101459e+00 1.484294456750110021e-02
1.338660040159801445e+00 1.474165166569626172e-02
1.348650040459501431e+00 1.468702258670570755e-02
1.358640040759201417e+00 1.463217537780044271e-02
1.368630041058901403e+00 1.456761425938984597e-02
1.378620041358601389e+00 1.445621545025081202e-02
1.388610041658301375e+00 1.437089478033315437e-02
1.398600041958001361e+00 1.432553751362325954e-02
1.408590042257701347e+00 1.416813174490875148e-02
1.418580042557401555e+00 1.414424877347954246e-02
1.428570042857101541e+00 1.402915801983672939e-02
1.438560043156801527e+00 1.397645505392932155e-02
1.448550043456501513e+00 1.395847589154562869e-02
1.458540043756201499e+00 1.388464290956149469e-02
1.468530044055901485e+00 1.379555184186398095e-02
1.478520044355601470e+00 1.373298172253890025e-02
1.488510044655301456e+00 1.364308699463116260e-02
1.498500044955001442e+00 1.435519310751262254e-02
1.508490045254701650e+00 1.352988767684039709e-02
1.518480045554401636e+00 1.339121463723910201e-02
1.528470045854101622e+00 1.347962724752010434e-02
1.538460046153801608e+00 1.333564244709299629e-02
1.548450046453501594e+00 1.332283465231247181e-02
1.558440046753201580e+00 1.336730753000412233e-02
1.568430047052901566e+00 1.313652809773251107e-02
1.578420047352601552e+00 1.306060642485116358e-02
1.588410047652301538e+00 1.299061633203178225e-02
1.598400047952001746e+00 1.305681356110738496e-02
1.608390048251701732e+00 1.289957592869072321e-02
1.618380048551401718e+00 1.290558396795309960e-02
1.628370048851101703e+00 1.291927630532705741e-02
1.638360049150801689e+00 1.275524570048438243e-02
1.648350049450501675e+00 1.273971113538397738e-02
1.658340049750201661e+00 1.272942641656960895e-02
1.668330050049901647e+00 1.267357727103523429e-02
1.678320050349601633e+00 1.255582232451491441e-02
1.688310050649301619e+00 1.255340587909123916e-02
1.698300050949001827e+00 1.249386961962206666e-02
1.708290051248701813e+00 1.248216214204103842e-02
1.718280051548401799e+00 1.238355877784727728e-02
1.728270051848101785e+00 1.235939333160070673e-02
1.738260052147801771e+00 1.241281529269285672e-02
1.748250052447501757e+00 1.225271006087776809e-02
1.758240052747201743e+00 1.228921674230866457e-02
1.768230053046901729e+00 1.211117138852651869e-02
1.778220053346601714e+00 1.219962601523565983e-02
1.788210053646301922e+00 1.212909823780057746e-02
1.798200053946001908e+00 1.211277442504797922e-02
1.808190054245701894e+00 1.202971670671501049e-02
1.818180054545401880e+00 1.212217192880860397e-02
1.828170054845101866e+00 1.230571975374608433e-02
1.838160055144801852e+00 1.184360888038536383e-02
1.848150055444501838e+00 1.189132637187606707e-02
1.858140055744201824e+00 1.184888277484561457e-02
1.868130056043901810e+00 1.181932475067407409e-02
1.878120056343602018e+00 1.180704669511573393e-02
1.888110056643302004e+00 1.178530779037091983e-02
1.898100056943001990e+00 1.181358927717154894e-02
1.908090057242701976e+00 1.169227366051262158e-02
1.918080057542401962e+00 1.173985247873032302e-02
1.928070057842101948e+00 1.150394699012793204e-02
1.938060058141801933e+00 1.163993275407650477e-02
1.948050058441501919e+00 1.161220867317772770e-02
1.958040058741201905e+00 1.153267741671318292e-02
1.968030059040902113e+00 1.150404637840862429e-02
1.978020059340602099e+00 1.152771683523923056e-02
1.988010059640302085e+00 1.154659844308516571e-02
1.998000059940002071e+00 1.142120171981320098e-02
2.007990060239702057e+00 1.148718958890872568e-02
2.017980060539402043e+00 1.146026166333313778e-02
2.027970060839102029e+00 1.134975724835008380e-02
2.037960061138802015e+00 1.138961936357167637e-02
2.047950061438502001e+00 1.137654462247621179e-02
2.057940061738201987e+00 1.131580259634165642e-02
2.067930062037901973e+00 1.123592341199305782e-02
2.077920062337601959e+00 1.137304800834001463e-02
2.087910062637301944e+00 1.131472604121727156e-02
2.097900062937001930e+00 1.133236985478631130e-02
2.107890063236702360e+00 1.129194427344980267e-02
2.117880063536402346e+00 1.128583140678148487e-02
2.127870063836102332e+00 1.129559637298869698e-02
2.137860064135802318e+00 1.128402699024869116e-02
2.147850064435502304e+00 1.134434725667707658e-02
2.157840064735202290e+00 1.161459998136918359e-02
2.167830065034902276e+00 1.040670412718060385e-02
2.177820065334602262e+00 1.093239644871392066e-02
2.187810065634302248e+00 1.098996926896420381e-02
2.197800065934002234e+00 1.098165464645533933e-02
2.207790066233702220e+00 1.099300363630754257e-02
2.217780066533402206e+00 1.096485172539905968e-02
2.227770066833102192e+00 1.096123794503678882e-02
2.237760067132802178e+00 1.104587899012100111e-02
2.247750067432502163e+00 1.102533747435650684e-02
2.257740067732202149e+00 1.100235373874443832e-02
2.267730068031902135e+00 1.095231079848455955e-02
2.277720068331602121e+00 1.103370255101432211e-02
2.287710068631302551e+00 1.099785011586497559e-02
2.297700068931002537e+00 1.094010981587197409e-02
2.307690069230702523e+00 1.089366644419556725e-02
2.317680069530402509e+00 1.087705396618714702e-02
2.327670069830102495e+00 1.092728062814828094e-02
2.337660070129802481e+00 1.092979552265146287e-02
2.347650070429502467e+00 1.089740864564249512e-02
2.357640070729202453e+00 1.091293996128102177e-02
2.367630071028902439e+00 1.094004096685675942e-02
2.377620071328602425e+00 1.094814227778077159e-02
2.387610071628302411e+00 1.092256177789821363e-02
2.397600071928002397e+00 1.097571332817728722e-02
2.407590072227702382e+00 1.090469740053722457e-02
2.417580072527402368e+00 1.087884814280948818e-02
2.427570072827102354e+00 1.085940599235681037e-02
2.437560073126802340e+00 1.086176764289188343e-02
2.447550073426502326e+00 1.089954199793291903e-02
2.457540073726202312e+00 1.088477852493419280e-02
2.467530074025902742e+00 1.084628574748810331e-02
2.477520074325602728e+00 1.082335845327452375e-02
2.487510074625302714e+00 1.079676589732800514e-02
-2.497500074925002700e+00 1.076654249149737799e-02
-2.487510074625302714e+00 1.079676589732800514e-02
-2.477520074325602728e+00 1.082335845327452375e-02
-2.467530074025902742e+00 1.084628574748810331e-02
-2.457540073726202312e+00 1.088477852493419280e-02
-2.447550073426502326e+00 1.089954199793291903e-02
-2.437560073126802340e+00 1.086176764289188343e-02
-2.427570072827102354e+00 1.085940599235681037e-02
-2.417580072527402368e+00 1.087884814280948818e-02
-2.407590072227702382e+00 1.090469740053722457e-02
-2.397600071928002397e+00 1.097571332817728722e-02
-2.387610071628302411e+00 1.092256177789821363e-02
-2.377620071328602425e+00 1.094814227778077159e-02
-2.367630071028902439e+00 1.094004096685675942e-02
-2.357640070729202453e+00 1.091293996128102177e-02
-2.347650070429502467e+00 1.089740864564249512e-02
-2.337660070129802481e+00 1.092979552265146287e-02
-2.327670069830102495e+00 1.092728062814828094e-02
-2.317680069530402509e+00 1.087705396618714702e-02
-2.307690069230702523e+00 1.089366644419556725e-02
-2.297700068931002537e+00 1.094010981587197409e-02
-2.287710068631302551e+00 1.099785011586497559e-02
-2.277720068331602121e+00 1.103370255101432211e-02
-2.267730068031902135e+00 1.095231079848455955e-02
-2.257740067732202149e+00 1.100235373874443832e-02
-2.247750067432502163e+00 1.102533747435650684e-02
-2.237760067132802178e+00 1.104587899012100111e-02
-2.227770066833102192e+00 1.096123794503678882e-02
-2.217780066533402206e+00 1.096485172539905968e-02
-2.207790066233702220e+00 1.099300363630754257e-02
-2.197800065934002234e+00 1.098165464645533933e-02
-2.187810065634302248e+00 1.098996926896420381e-02
-2.177820065334602262e+00 1.093239644871392066e-02
-2.167830065034902276e+00 1.040670412718060385e-02
-2.157840064735202290e+00 1.161459998136918359e-02
-2.147850064435502304e+00 1.134434725667707658e-02
-2.137860064135802318e+00 1.128402699024869116e-02
-2.127870063836102332e+00 1.129559637298869698e-02
-2.117880063536402346e+00 1.128583140678148487e-02
-2.107890063236702360e+00 1.129194427344980267e-02
-2.097900062937001930e+00 1.133236985478631130e-02
-2.087910062637301944e+00 1.131472604121727156e-02
-2.077920062337601959e+00 1.137304800834001463e-02
-2.067930062037901973e+00 1.123592341199305782e-02
-2.057940061738201987e+00 1.131580259634165642e-02
-2.047950061438502001e+00 1.137654462247621179e-02
-2.037960061138802015e+00 1.138961936357167637e-02
-2.027970060839102029e+00 1.134975724835008380e-02
-2.017980060539402043e+00 1.146026166333313778e-02
-2.007990060239702057e+00 1.148718958890872568e-02
-1.998000059940002071e+00 1.142120171981320098e-02
-1.988010059640302085e+00 1.154659844308516571e-02
-1.978020059340602099e+00 1.152771683523923056e-02
-1.968030059040902113e+00 1.150404637840862429e-02
-1.958040058741201905e+00 1.153267741671318292e-02
-1.948050058441501919e+00 1.161220867317772770e-02
-1.938060058141801933e+00 1.163993275407650477e-02
-1.928070057842101948e+00 1.150394699012793204e-02
-1.918080057542401962e+00 1.173985247873032302e-02
-1.908090057242701976e+00 1.169227366051262158e-02
-1.898100056943001990e+00 1.181358927717154894e-02
-1.888110056643302004e+00 1.178530779037091983e-02
-1.878120056343602018e+00 1.180704669511573393e-02
-1.868130056043901810e+00 1.181932475067407409e-02
-1.858140055744201824e+00 1.184888277484561457e-02
-1.848150055444501838e+00 1.189132637187606707e-02
-1.838160055144801852e+00 1.184360888038536383e-02
-1.828170054845101866e+00 1.230571975374608433e-02
-1.818180054545401880e+00 1.212217192880860397e-02
-1.808190054245701894e+00 1.202971670671501049e-02
-1.798200053946001908e+00 1.211277442504797922e-02
-1.788210053646301922e+00 1.212909823780057746e-02
-1.778220053346601714e+00 1.219962601523565983e-02
-1.768230053046901729e+00 1.211117138852651869e-02
-1.758240052747201743e+00 1.228921674230866457e-02
-1.748250052447501757e+00 1.225271006087776809e-02
-1.738260052147801771e+00 1.241281529269285672e-02
-1.728270051848101785e+00 1.235939333160070673e-02
-1.718280051548401799e+00 1.238355877784727728e-02
-1.708290051248701813e+00 1.248216214204103842e-02
-1.698300050949001827e+00 1.249386961962206666e-02
-1.688310050649301619e+00 1.255340587909123916e-02
-1.678320050349601633e+00 1.255582232451491441e-02
-1.668330050049901647e+00 1.267357727103523429e-02
-1.658340049750201661e+00 1.272942641656960895e-02
-1.648350049450501675e+00 1.273971113538397738e-02
-1.638360049150801689e+00 1.275524570048438243e-02
-1.628370048851101703e+00 1.291927630532705741e-02
-1.618380048551401718e+00 1.290558396795309960e-02
-1.608390048251701732e+00 1.289957592869072321e-02
-1.598400047952001746e+00 1.305681356110738496e-02
-1.588410047652301538e+00 1.299061633203178225e-02
-1.578420047352601552e+00 1.306060642485116358e-02
-1.568430047052901566e+00 1.313652809773251107e-02
-1.558440046753201580e+00 1.336730753000412233e-02
-1.548450046453501594e+00 1.332283465231247181e-02
-1.538460046153801608e+00 1.333564244709299629e-02
-1.528470045854101622e+00 1.347962724752010434e-02
-1.518480045554401636e+00 1.339121463723910201e-02
-1.508490045254701650e+00 1.352988767684039709e-02
-1.498500044955001442e+00 1.435519310751262254e-02
-1.488510044655301456e+00 1.364308699463116260e-02
-1.478520044355601470e+00 1.373298172253890025e-02
-1.468530044055901485e+00 1.379555184186398095e-02
-1.458540043756201499e+00 1.388464290956149469e-02
-1.448550043456501513e+00 1.395847589154562869e-02
-1.438560043156801527e+00 1.397645505392932155e-02
-1.428570042857101541e+00 1.402915801983672939e-02
-1.418580042557401555e+00 1.414424877347954246e-02
-1.408590042257701347e+00 1.416813174490875148e-02
-1.398600041958001361e+00 1.432553751362325954e-02
-1.388610041658301375e+00 1.437089478033315437e-02
-1.378620041358601389e+00 1.445621545025081202e-02
-1.368630041058901403e+00 1.456761425938984597e-02
-1.358640040759201417e+00 1.463217537780044271e-02
-1.348650040459501431e+00 1.468702258670570755e-02
-1.338660040159801445e+00 1.474165166569626172e-02
-1.328670039860101459e+00 1.484294456750110021e-02
-1.318680039560401251e+00 1.499173753539644049e-02
-1.308690039260701266e+00 1.506791097875491772e-02
-1.298700038961001280e+00 1.507413821014653987e-02
-1.288710038661301294e+00 1.525520450833085968e-02
-1.278720038361601308e+00 1.538867966374108352e-02
-1.268730038061901322e+00 1.535514984498125186e-02
-1.258740037762201336e+00 1.545686597605396180e-02
-1.248750037462501350e+00 1.564002315661370754e-02
-1.238760037162801364e+00 1.574259089346296756e-02
-1.228770036863101156e+00 1.577168705657229497e-02
-1.218780036563401170e+00 1.591693871193467294e-02
-1.208790036263701184e+00 1.605711259064941665e-02
-1.198800035964001198e+00 1.616358569966603112e-02
-1.188810035664301212e+00 1.627110737206349106e-02
-1.178820035364601226e+00 1.642980386240220497e-02
-1.168830035064901240e+00 1.624375448896407323e-02
-1.158840034765201255e+00 1.695609690509414236e-02
-1.148850034465501269e+00 1.690578273557154579e-02
-1.138860034165801061e+00 1.694988173887673755e-02
-1.128870033866101075e+00 1.705210456610418285e-02
-1.118880033566401089e+00 1.721521904888708224e-02
-1.108890033266701103e+00 1.725161993600898142e-02
-1.098900032967001117e+00 1.749694513233978829e-02
-1.088910032667301131e+00 1.758951312582063276e-02
-1.078920032367601145e+00 1.776921411429958214e-02
-1.068930032067901159e+00 1.785631693562010278e-02
-1.058940031768201173e+00 1.798409756807464038e-02
-1.048950031468500965e+00 1.817199278636733722e-02
-1.038960031168800979e+00 1.836127392418455614e-02
-1.028970030869100993e+00 1.856280856380646341e-02
-1.018980030569401007e+00 1.871419211794494303e-02
-1.008990030269701021e+00 1.885532989176064503e-02
-9.990000299700010356e-01 1.904957066402363994e-02
-9.890100296703010496e-01 1.928135297217070318e-02
-9.790200293706009527e-01 1.938007641072526932e-02
-9.690300290709009667e-01 1.965229969018053580e-02
-9.590400287712009808e-01 1.986227807885763280e-02
-9.490500284715009949e-01 1.999727574720322476e-02
-9.390600281718010089e-01 2.017259056596045624e-02
-9.290700278721009120e-01 2.059314387302524016e-02
-9.190800275724009261e-01 2.061527802508747106e-02
-9.090900272727009401e-01 2.091384818005488644e-02
-8.991000269730009542e-01 2.116250640878084358e-02
-8.891100266733008572e-01 2.137922304968651807e-02
-8.791200263736008713e-01 2.155295461815589023e-02
-8.691300260739008854e-01 2.185635982344413808e-02
-8.591400257742008995e-01 2.216072171236123031e-02
-8.491500254745009135e-01 2.237890122837077680e-02
-8.391600251748008166e-01 2.273155300503224008e-02
-8.291700248751008306e-01 2.247433498759906362e-02
-8.191800245754008447e-01 2.297835380065007399e-02
-8.091900242757008588e-01 2.324634773500835680e-02
-7.992000239760008728e-01 2.367086973726537438e-02
-7.892100236763007759e-01 2.394999582879382347e-02
-7.792200233766007900e-01 2.430122533178264224e-02
-7.692300230769008040e-01 2.467565500448069132e-02
-7.592400227772008181e-01 2.488215996839806404e-02
-7.492500224775007212e-01 2.529314411687198783e-02
-7.392600221778007352e-01 2.558666906010966663e-02
-7.292700218781007493e-01 2.600956957855010340e-02
-7.192800215784007634e-01 2.644494428599661676e-02
-7.092900212787007774e-01 2.687093665616902688e-02
-6.993000209790006805e-01 2.721465165246739551e-02
-6.893100206793006945e-01 2.764401815833687423e-02
-6.793200203796007086e-01 2.823020633394298165e-02
-6.693300200799007227e-01 2.861825452249049453e-02
-6.593400197802006257e-01 2.907959178353006213e-02
-6.493500194805006398e-01 2.961127555781385701e-02
-6.393600191808006539e-01 3.004428753606547264e-02
-6.293700188811006679e-01 3.059673227113309316e-02
-6.193800185814006820e-01 3.130729166780426426e-02
-6.093900182817005851e-01 3.183251588271168026e-02
-5.994000179820005991e-01 3.240873114057429838e-02
-5.894100176823006132e-01 3.302357491222930597e-02
-5.794200173826006273e-01 3.365050893453708919e-02
-5.694300170829005303e-01 3.435907650177379147e-02
-5.594400167832005444e-01 3.525217363467537945e-02
-5.494500164835005585e-01 3.585082844697709548e-02
-5.394600161838005725e-01 3.662193020760440981e-02
-5.294700158841005866e-01 3.757356316488993930e-02
-5.194800155844004896e-01 3.838669113786271486e-02
-5.094900152847005037e-01 3.943164921320176791e-02
-4.995000149850005178e-01 3.384000478144592178e-02
-4.895100146853004763e-01 4.148004329990957750e-02
-4.795200143856004904e-01 4.265339224681739816e-02
-4.695300140859005045e-01 4.380978779651711202e-02
-4.595400137862004630e-01 4.512232955865779632e-02
-4.495500134865004771e-01 4.636065751369226884e-02
-4.395600131868004357e-01 4.768512948646141947e-02
-4.295700128871004497e-01 4.943488261868018291e-02
-4.195800125874004083e-01 5.102835863641567299e-02
-4.095900122877004224e-01 5.285693886464735980e-02
-3.996000119880004364e-01 5.474747711089279767e-02
-3.896100116883003950e-01 5.688624745012548639e-02
-3.796200113886004091e-01 5.915116983820495333e-02
-3.696300110889003676e-01 6.173326452962398653e-02
-3.596400107892003817e-01 6.449442684972930828e-02
-3.496500104895003402e-01 6.749347669182309550e-02
-3.396600101898003543e-01 7.094213549173809807e-02
-3.296700098901003129e-01 7.466283424657153833e-02
-3.196800095904003269e-01 7.903069192605852167e-02
-3.096900092907003410e-01 8.390651351933516022e-02
-2.997000089910002996e-01 8.942976502638058656e-02
-2.897100086913003136e-01 9.599293424888133419e-02
-2.797200083916002722e-01 1.035059605444436509e-01
-2.697300080919002863e-01 1.126334689725828481e-01
-2.597400077922002448e-01 1.236216213823044530e-01
-2.497500074925002589e-01 1.370934156653422775e-01
-2.397600071928002452e-01 1.543780639328964921e-01
-2.297700068931002315e-01 1.772189976139680323e-01
-2.197800065934002178e-01 2.081841096470063435e-01
-2.097900062937002041e-01 2.536578366986130262e-01
-1.998000059940002182e-01 3.263165523670955581e-01
-1.898100056943002045e-01 4.615244442360162402e-01
-1.798200053946001908e-01 8.005818000810097645e-01
-1.698300050949001772e-01 3.184123473543681193e+00
-1.598400047952001635e-01 1.580567976022994925e+00
-1.498500044955001498e-01 6.262075432925167107e-01
-1.398600041958001361e-01 3.872870925231973183e-01
-1.298700038961001224e-01 2.787531903532962652e-01
-1.198800035964001226e-01 2.170705616113898784e-01
-1.098900032967001089e-01 1.773617655816196736e-01
-9.990000299700010911e-02 1.497246246958563454e-01
-8.991000269730009542e-02 1.297947945706164063e-01
-7.992000239760008173e-02 1.147888658613950147e-01
-6.993000209790006805e-02 1.030716792084018091e-01
-5.994000179820006130e-02 9.411774122569513401e-02
-4.995000149850005455e-02 8.714167761771894616e-02
-3.996000119880004087e-02 8.179324771890336687e-02
-2.997000089910003065e-02 7.780404416340827578e-02
-1.998000059940002043e-02 7.505190680445930629e-02
-9.990000299700010217e-03 7.344118604847914289e-02
