-4.944528525366849, 0.02923076923076917
-3.7498190432322183, 0.01472527472527474
-1.8956372968349022, 0.004175824175824183
-0.0992301112061611, 0.004175824175824183
1.5789958544449547, 0.012087912087912156
3.6172928867539653, 0.023956043956043893
5.295782062249124, 0.03318681318681316
7.5147726524972, 0.05032967032967034
9.194577877212609, 0.06615384615384612
11.35421464762782, 0.08593406593406588
12.735145094426535, 0.10439560439560436
14.238204908863601, 0.13472527472527468
14.963348029216291, 0.16769230769230764
15.391195630716588, 0.21120879120879116
15.879186681581892, 0.25604395604395597
16.30703428308219, 0.2995604395604395
16.67552806474962, 0.34571428571428564
16.923208527998945, 0.38659340659340646
17.708758307560707, 0.4221978021978021
18.54287030334934, 0.401098901098901
19.376192669605842, 0.37604395604395596
20.333223662564976, 0.3707692307692307
21.22721589787458, 0.34967032967032957
22.7825228663552, 0.34175824175824165
24.04000789629532, 0.34175824175824165
24.93794827926564, 0.34043956043956036
24.750411265381324, 0.30087912087912083
24.02579456471672, 0.2705494505494505
23.001513456603284, 0.23890109890109884
21.858524708824113, 0.21252747252747245
20.53615845232612, 0.1874725274725274
18.973744818056197, 0.15978021978021972
17.233006514443645, 0.1386813186813186
15.492268210831085, 0.11758241758241755
13.81141014673949, 0.09648351648351644
12.610120418503655, 0.07802197802197802
11.34789761137067, 0.05428571428571427
10.146081463446734, 0.03318681318681316
8.589195235901826, 0.03318681318681316
6.731591761531881, 0.026593406593406588
4.994011976047908, 0.0213186813186812
2.657103375666253, 0.013406593406593448
0.9184707508060796, 0.0028571428571428914
-0.8779364348226615, 0.0028571428571428914
-2.6727643613871166, 0.010769230769230753
-4.407712048430611, 0.018681318681318615

