-5.0840545588862405, -0.4488987921849388
-3.0498081069555987, -0.3148169058072421
-0.9025279431107727, -0.1743475936792418
1.1313581462951774, -0.02115748442933585
2.712388662994968, 0.14469936756376933
4.349875975231086, 0.3169346362440617
6.326344302368177, 0.5147015897993383
8.416567066468865, 0.6806395233605009
10.33717920227749, 0.8401810221082411
12.314968858671826, 0.9678844917987499
14.065970366188388, 1.1210295557330678
15.929885464777563, 1.2869314530417604
17.625631385173484, 1.3700040240481928
18.980714598886472, 1.5167166169166186
19.9391587937465, 1.695213184463571
21.06853494615583, 1.8100427029591777
21.806076913374852, 1.7018798911705182
22.54457984732641, 1.5427618183893002
23.05737571997429, 1.3517606712352632
24.13401882293588, 1.262760136697518
24.872281515204293, 1.1163808791644396
24.876125382134425, 0.9125598351942057
24.314079964444232, 0.7150181082168665
23.071429858437583, 0.6065399792190944
21.60211172439474, 0.5171340368410622
19.793091850401503, 0.4404128553324642
17.870798022810952, 0.37004306332170156
16.061658027976144, 0.29969128943717394
14.25215767061664, 0.24844773842485557
11.87724851200307, 0.17800587390915235
9.445402074486935, 0.12666322320254197
7.522507642688545, 0.08814046931212793
5.42916173670713, 0.08780713397678053
4.070234656064002, 0.14491558507858882
3.0510093153712674, 0.18933927531096284
1.4118403113532203, 0.10627571336764774
-0.22732869266482325, 0.023212151424333083
-1.8090799344140187, -0.10442825482435358
-3.2771968600411974, -0.25752827344308393
-4.067111514183267, -0.3723037375599856

