0.009429928279418714, 0.1853785900783287
0.021231106129615346, -0.07049608355091408
0.04410783354605469, -0.28981723237597934
0.10701073541130812, -0.639686684073107
0.22262858845862293, -0.7336814621409922
0.34269091474515545, -0.6187989556135771
0.46507913883471863, -0.4412532637075719
0.568999475215259, -0.3211488250652743
0.686606327219483, -0.21671018276762433
0.7930598837698981, -0.11749347258485643
0.904359600645291, 0.028720626631853596
