0.01192730789378249, 0.36710050905964975
0.012572027239392353, 0.19689460181864615
0.027508025412687542, -0.07954224926461673
0.030839075365005186, -0.2922727700098049
0.05663456501591649, -0.4356153711837314
0.08112718432257457, -0.5683335348081286
0.10547877127238045, -0.6638191562235563
0.13480006984459578, -0.737975312621724
0.1565257686263448, -0.8068931243368118
0.20708922647110176, -0.8223126620193144
0.30833702703791743, -0.8850653449920078
0.40536728855220194, -0.5010543847631324
0.5060106647325084, -0.40423902969738457
0.6103611771500717, -0.2861076412674104
0.709701682986125, -0.17866784865213337
0.8091227787403793, -0.09250379444198176
0.906999234395777, 0.06811191253307558
1.0073806933419296, 0.2340734174154815
