-0.0012269938650306955, 1.1663293761453273
0.009815950920245398, 0.5738347542028526
0.02208588957055213, 0.33455501553661127
0.03926380368098156, 0.09514779698828812
0.10061349693251528, -0.264887259979284
0.22085889570552145, -0.3771014261811805
0.3374233128834355, -0.36454465779619105
0.46503067484662575, -0.26396303083419626
0.5717791411042944, -0.19920325073699274
0.6773006134969325, -0.1603856266432948
0.7852760736196319, -0.07487849573739114
0.9006134969325152, 0.031216636124612007
