 25
19
23
22
17
27
31
30
[0.001, 0.002, 0.00475697, 0.010403, 0.0216013, 0.0278447, 0.0460751, 0.0523, 0.0635, 0.0691, 0.0791, 0.0863, 0.104, 0.116, 0.125, 0.135, 0.142, 0.152, 0.158, 0.169, 0.175, 0.193, 0.2, 0.211, 0.217, 0.227, 0.234, 0.243, 0.252, 0.264, 0.273, 0.283, 0.29, 0.58]
Warning: In /home/abuild/rpmbuild/BUILD/ParaView-v5.6.0/ParaViewCore/ServerManager/Rendering/vtkSMPVRepresentationProxy.cxx, line 648
vtkSMPVRepresentationProxy (0x5594760d2df0): Failed to determine the LookupTable being used.

[0.001, 0.002, 0.00475697, 0.010403, 0.0216013, 0.0278447, 0.0460751, 0.0523, 0.0635, 0.0691, 0.0791, 0.0863, 0.104, 0.116, 0.125, 0.135, 0.142, 0.152, 0.158, 0.169, 0.175, 0.193, 0.2, 0.211, 0.217, 0.227, 0.234, 0.243, 0.252, 0.264, 0.273, 0.283, 0.29, 0.58]
Warning: In /home/abuild/rpmbuild/BUILD/ParaView-v5.6.0/ParaViewCore/ServerManager/Rendering/vtkSMPVRepresentationProxy.cxx, line 648
vtkSMPVRepresentationProxy (0x55947867c3e0): Failed to determine the LookupTable being used.

[0.001, 0.002, 0.00475697, 0.010403, 0.0216013, 0.0278447, 0.0460751, 0.0523, 0.0635, 0.0691, 0.0791, 0.0863, 0.104, 0.116, 0.125, 0.135, 0.142, 0.152, 0.158, 0.169, 0.175, 0.193, 0.2, 0.211, 0.217, 0.227, 0.234, 0.243, 0.252, 0.264, 0.273, 0.283, 0.29, 0.58]
Warning: In /home/abuild/rpmbuild/BUILD/ParaView-v5.6.0/ParaViewCore/ServerManager/Rendering/vtkSMPVRepresentationProxy.cxx, line 648
vtkSMPVRepresentationProxy (0x559479089350): Failed to determine the LookupTable being used.

[0.001, 0.002, 0.00475697, 0.010403, 0.0216013, 0.0278447, 0.0460751, 0.0523, 0.0635, 0.0691, 0.0791, 0.0863, 0.104, 0.116, 0.125, 0.135, 0.142, 0.152, 0.158, 0.169, 0.175, 0.193, 0.2, 0.211, 0.217, 0.227, 0.234, 0.243, 0.252, 0.264, 0.273, 0.283, 0.29, 0.58]
Warning: In /home/abuild/rpmbuild/BUILD/ParaView-v5.6.0/ParaViewCore/ServerManager/Rendering/vtkSMPVRepresentationProxy.cxx, line 648
vtkSMPVRepresentationProxy (0x559479c67320): Failed to determine the LookupTable being used.

[0.001, 0.002, 0.00475697, 0.010403, 0.0216013, 0.0278447, 0.0460751, 0.0523, 0.0635, 0.0691, 0.0791, 0.0863, 0.104, 0.116, 0.125, 0.135, 0.142, 0.152, 0.158, 0.169, 0.175, 0.193, 0.2, 0.211, 0.217, 0.227, 0.234, 0.243, 0.252, 0.264, 0.273, 0.283, 0.29, 0.58]
Warning: In /home/abuild/rpmbuild/BUILD/ParaView-v5.6.0/ParaViewCore/ServerManager/Rendering/vtkSMPVRepresentationProxy.cxx, line 648
vtkSMPVRepresentationProxy (0x55947ae6a820): Failed to determine the LookupTable being used.

[0.001, 0.002, 0.00475697, 0.010403, 0.0216013, 0.0278447, 0.0460751, 0.0523, 0.0635, 0.0691, 0.0791, 0.0863, 0.104, 0.116, 0.125, 0.135, 0.142, 0.152, 0.158, 0.169, 0.175, 0.193, 0.2, 0.211, 0.217, 0.227, 0.234, 0.243, 0.252, 0.264, 0.273, 0.283, 0.29, 0.58]
Warning: In /home/abuild/rpmbuild/BUILD/ParaView-v5.6.0/ParaViewCore/ServerManager/Rendering/vtkSMPVRepresentationProxy.cxx, line 648
vtkSMPVRepresentationProxy (0x55947b84ce20): Failed to determine the LookupTable being used.

[0.001, 0.002, 0.00475697, 0.010403, 0.0216013, 0.0278447, 0.0460751, 0.0523, 0.0635, 0.0691, 0.0791, 0.0863, 0.104, 0.116, 0.125, 0.135, 0.142, 0.152, 0.158, 0.169, 0.175, 0.193, 0.2, 0.211, 0.217, 0.227, 0.234, 0.243, 0.252, 0.264, 0.273, 0.283, 0.29, 0.58]
Warning: In /home/abuild/rpmbuild/BUILD/ParaView-v5.6.0/ParaViewCore/ServerManager/Rendering/vtkSMPVRepresentationProxy.cxx, line 648
vtkSMPVRepresentationProxy (0x55947df2b680): Failed to determine the LookupTable being used.

[0.001, 0.002, 0.00475697, 0.010403, 0.0216013, 0.0278447, 0.0460751, 0.0523, 0.0635, 0.0691, 0.0791, 0.0863, 0.104, 0.116, 0.125, 0.135, 0.142, 0.152, 0.158, 0.169, 0.175, 0.193, 0.2, 0.211, 0.217, 0.227, 0.234, 0.243, 0.252, 0.264, 0.273, 0.283, 0.29, 0.58]
Warning: In /home/abuild/rpmbuild/BUILD/ParaView-v5.6.0/ParaViewCore/ServerManager/Rendering/vtkSMPVRepresentationProxy.cxx, line 648
vtkSMPVRepresentationProxy (0x55947e0ad6e0): Failed to determine the LookupTable being used.

 25
19
23
22
17
27
31
30
[0.001, 0.002, 0.00475697, 0.010403, 0.0216013, 0.0278447, 0.0460751, 0.0523, 0.0635, 0.0691, 0.0791, 0.0863, 0.104, 0.116, 0.125, 0.135, 0.142, 0.152, 0.158, 0.169, 0.175, 0.193, 0.2, 0.211, 0.217, 0.227, 0.234, 0.243, 0.252, 0.264, 0.273, 0.283, 0.29, 0.58]
Warning: In /home/abuild/rpmbuild/BUILD/ParaView-v5.6.0/ParaViewCore/ServerManager/Rendering/vtkSMPVRepresentationProxy.cxx, line 648
vtkSMPVRepresentationProxy (0x55864bcd66f0): Failed to determine the LookupTable being used.

[0.001, 0.002, 0.00475697, 0.010403, 0.0216013, 0.0278447, 0.0460751, 0.0523, 0.0635, 0.0691, 0.0791, 0.0863, 0.104, 0.116, 0.125, 0.135, 0.142, 0.152, 0.158, 0.169, 0.175, 0.193, 0.2, 0.211, 0.217, 0.227, 0.234, 0.243, 0.252, 0.264, 0.273, 0.283, 0.29, 0.58]
Warning: In /home/abuild/rpmbuild/BUILD/ParaView-v5.6.0/ParaViewCore/ServerManager/Rendering/vtkSMPVRepresentationProxy.cxx, line 648
vtkSMPVRepresentationProxy (0x55864d9b3ca0): Failed to determine the LookupTable being used.

[0.001, 0.002, 0.00475697, 0.010403, 0.0216013, 0.0278447, 0.0460751, 0.0523, 0.0635, 0.0691, 0.0791, 0.0863, 0.104, 0.116, 0.125, 0.135, 0.142, 0.152, 0.158, 0.169, 0.175, 0.193, 0.2, 0.211, 0.217, 0.227, 0.234, 0.243, 0.252, 0.264, 0.273, 0.283, 0.29, 0.58]
Warning: In /home/abuild/rpmbuild/BUILD/ParaView-v5.6.0/ParaViewCore/ServerManager/Rendering/vtkSMPVRepresentationProxy.cxx, line 648
vtkSMPVRepresentationProxy (0x55864ec5bd50): Failed to determine the LookupTable being used.

[0.001, 0.002, 0.00475697, 0.010403, 0.0216013, 0.0278447, 0.0460751, 0.0523, 0.0635, 0.0691, 0.0791, 0.0863, 0.104, 0.116, 0.125, 0.135, 0.142, 0.152, 0.158, 0.169, 0.175, 0.193, 0.2, 0.211, 0.217, 0.227, 0.234, 0.243, 0.252, 0.264, 0.273, 0.283, 0.29, 0.58]
Warning: In /home/abuild/rpmbuild/BUILD/ParaView-v5.6.0/ParaViewCore/ServerManager/Rendering/vtkSMPVRepresentationProxy.cxx, line 648
vtkSMPVRepresentationProxy (0x55864ea30000): Failed to determine the LookupTable being used.

[0.001, 0.002, 0.00475697, 0.010403, 0.0216013, 0.0278447, 0.0460751, 0.0523, 0.0635, 0.0691, 0.0791, 0.0863, 0.104, 0.116, 0.125, 0.135, 0.142, 0.152, 0.158, 0.169, 0.175, 0.193, 0.2, 0.211, 0.217, 0.227, 0.234, 0.243, 0.252, 0.264, 0.273, 0.283, 0.29, 0.58]
Warning: In /home/abuild/rpmbuild/BUILD/ParaView-v5.6.0/ParaViewCore/ServerManager/Rendering/vtkSMPVRepresentationProxy.cxx, line 648
vtkSMPVRepresentationProxy (0x558650ada9d0): Failed to determine the LookupTable being used.

[0.001, 0.002, 0.00475697, 0.010403, 0.0216013, 0.0278447, 0.0460751, 0.0523, 0.0635, 0.0691, 0.0791, 0.0863, 0.104, 0.116, 0.125, 0.135, 0.142, 0.152, 0.158, 0.169, 0.175, 0.193, 0.2, 0.211, 0.217, 0.227, 0.234, 0.243, 0.252, 0.264, 0.273, 0.283, 0.29, 0.58]
Warning: In /home/abuild/rpmbuild/BUILD/ParaView-v5.6.0/ParaViewCore/ServerManager/Rendering/vtkSMPVRepresentationProxy.cxx, line 648
vtkSMPVRepresentationProxy (0x558650a1b1a0): Failed to determine the LookupTable being used.

[0.001, 0.002, 0.00475697, 0.010403, 0.0216013, 0.0278447, 0.0460751, 0.0523, 0.0635, 0.0691, 0.0791, 0.0863, 0.104, 0.116, 0.125, 0.135, 0.142, 0.152, 0.158, 0.169, 0.175, 0.193, 0.2, 0.211, 0.217, 0.227, 0.234, 0.243, 0.252, 0.264, 0.273, 0.283, 0.29, 0.58]
Warning: In /home/abuild/rpmbuild/BUILD/ParaView-v5.6.0/ParaViewCore/ServerManager/Rendering/vtkSMPVRepresentationProxy.cxx, line 648
vtkSMPVRepresentationProxy (0x5586525c3f60): Failed to determine the LookupTable being used.

[0.001, 0.002, 0.00475697, 0.010403, 0.0216013, 0.0278447, 0.0460751, 0.0523, 0.0635, 0.0691, 0.0791, 0.0863, 0.104, 0.116, 0.125, 0.135, 0.142, 0.152, 0.158, 0.169, 0.175, 0.193, 0.2, 0.211, 0.217, 0.227, 0.234, 0.243, 0.252, 0.264, 0.273, 0.283, 0.29, 0.58]
Warning: In /home/abuild/rpmbuild/BUILD/ParaView-v5.6.0/ParaViewCore/ServerManager/Rendering/vtkSMPVRepresentationProxy.cxx, line 648
vtkSMPVRepresentationProxy (0x558654063460): Failed to determine the LookupTable being used.

